{
  "records": [
    {
      "attributes": {
        "type": "sampleMaster__c",
        "referenceId": "sampleMaster__cRef1"
      },
      "Name": "Sample Value 1",
      "sampleValue__c": "dev01",
      "AttachedInfo1__c": "GitLab Testing User",
      "AttachedInfo2__c": "Import MasterData Testing...",
      "AttachedInfo3__c": "Go Run"
    },
    {
      "attributes": {
        "type": "sampleMaster__c",
        "referenceId": "sampleMaster__cRef2"
      },
      "Name": "Sample Value 2",
      "sampleValue__c": "dev02",
      "AttachedInfo1__c": "optional 1...",
      "AttachedInfo2__c": "optional 2...",
      "AttachedInfo3__c": "optional 3..."
    }
  ]
}
